Auditory Oddball Data Quality and Analysis
…
## 
##    0    1 
## 8785  282

## [1] "trials with missing data: 282"

## [1] "of total trials: 9067"

## [1] "trials with missing data percentage: 0.03"

## 
## Per-participant PD missing data proportion:

## # A tibble: 91 × 4
##    id     total_samples na_count na_prop
##    <chr>          <int>    <int>   <dbl>
##  1 LM_020         12372    12372  1     
##  2 LM_034         12303     4176  0.339 
##  3 LM_065         12148     3247  0.267 
##  4 LM_110         12419     3002  0.242 
##  5 LM_078         12190     1880  0.154 
##  6 LM_122         12258     1207  0.0985
##  7 LM_044         12176      950  0.0780
##  8 LM_026         12380      867  0.0700
##  9 LM_067         14175      829  0.0585
## 10 LM_087         12332      623  0.0505
## # ℹ 81 more rows
…
